…
``` r
distinct(transit_df, station_name)
```

    ## # A tibble: 356 x 1
    ##    station_name            
    ##    <chr>                   
    ##  1 25th St                 
    ##  2 36th St                 
    ##  3 45th St                 
    ##  4 53rd St                 
    ##  5 59th St                 
    ##  6 77th St                 
    ##  7 86th St                 
    ##  8 95th St                 
    ##  9 9th St                  
    ## 10 Atlantic Av-Barclays Ctr
    ## # … with 346 more rows

``` r
filter(transit_df, !(ada == FALSE))
```

    ## # A tibble: 468 x 19
    ##    line  station_name station_latitude station_longitu… route1 route2 route3
    ##    <chr> <chr>                   <dbl>            <dbl> <chr>  <chr>  <chr> 
    ##  1 4 Av… Atlantic Av…             40.7            -74.0 B      Q      D     
    ##  2 4 Av… DeKalb Av                40.7            -74.0 B      Q      R     
    ##  3 4 Av… DeKalb Av                40.7            -74.0 B      Q      R     
    ##  4 4 Av… DeKalb Av                40.7            -74.0 B      Q      R     
    ##  5 4 Av… DeKalb Av                40.7            -74.0 B      Q      R     
    ##  6 4 Av… DeKalb Av                40.7            -74.0 B      Q      R     
    ##  7 4 Av… DeKalb Av                40.7            -74.0 B      Q      R     
    ##  8 4 Av… Pacific St               40.7            -74.0 B      Q      D     
    ##  9 4 Av… Pacific St               40.7            -74.0 B      Q      D     
    ## 10 42nd… Grand Centr…             40.8            -74.0 GS     4      5     
    ## # … with 458 more rows, and 12 more variables: route4 <chr>, route5 <chr>,
    ## #   route6 <chr>, route7 <chr>, route8 <dbl>, route9 <dbl>, route10 <dbl>,
    ## #   route11 <dbl>, entry <lgl>, vending <chr>, entrance_type <chr>, ada <lgl>

``` r
filter(transit_df, !(vending == "YES"))
```

    ## # A tibble: 183 x 19
    ##    line  station_name station_latitude station_longitu… route1 route2 route3
    ##    <chr> <chr>                   <dbl>            <dbl> <chr>  <chr>  <chr> 
    ##  1 4 Av… 53rd St                  40.6            -74.0 R      <NA>   <NA>  
    ##  2 4 Av… 77th St                  40.6            -74.0 R      <NA>   <NA>  
    ##  3 4 Av… 9th St                   40.7            -74.0 F      G      R     
    ##  4 4 Av… Bay Ridge Av             40.6            -74.0 R      <NA>   <NA>  
    ##  5 42nd… Grand Centr…             40.8            -74.0 GS     4      5     
    ##  6 42nd… Grand Centr…             40.8            -74.0 GS     4      5     
    ##  7 6 Av… 7th Av                   40.7            -74.0 F      <NA>   <NA>  
    ##  8 6 Av… 7th Av                   40.7            -74.0 F      <NA>   <NA>  
    ##  9 6 Av… 7th Av                   40.7            -74.0 F      <NA>   <NA>  
    ## 10 6 Av… 7th Av                   40.7            -74.0 F      <NA>   <NA>  
    ## # … with 173 more rows, and 12 more variables: route4 <chr>, route5 <chr>,
    ## #   route6 <chr>, route7 <chr>, route8 <dbl>, route9 <dbl>, route10 <dbl>,
    ## #   route11 <dbl>, entry <lgl>, vending <chr>, entrance_type <chr>, ada <lgl>
…
